{
  "encoding": "ascii",
  "transport_type": "mqtt",
  "device_id": "111",
  "sender": "PeripheralSimulator",
  "data_type": "text",
  "version": "1.0.0",
  "message_type": "data",
  "latitude": " 23.000000",
  "longitude": " 72.000000",
  "timestamp": "20200821223018",
  "payload": [
    {
      "peripheral_id": "000",
      "timestamp": "2020082122301",
      "vibrationX": "  6.000000",
      "vibrationZ": " 11.000000",
      "temperatureC": " 59.000000"
    },
    {
      "peripheral_id": "000",
      "timestamp": "2020082122302",
      "vibrationX": "  7.000000",
      "vibrationZ": " 12.000000",
      "temperatureC": " 58.000000"
    }
  ]
}